{
    "amplify": {
        "awscloudformation": {
            "AuthRoleName": "authcra-amplify-20190610040649-authRole",
            "UnauthRoleArn": "arn:aws:iam::512326705034:role/authcra-amplify-20190610040649-unauthRole",
            "AuthRoleArn": "arn:aws:iam::512326705034:role/authcra-amplify-20190610040649-authRole",
            "Region": "ap-southeast-2",
            "DeploymentBucketName": "authcra-amplify-20190610040649-deployment",
            "UnauthRoleName": "authcra-amplify-20190610040649-unauthRole",
            "StackName": "authcra-amplify-20190610040649",
            "StackId": "arn:aws:cloudformation:ap-southeast-2:512326705034:stack/authcra-amplify-20190610040649/2bf62530-8b35-11e9-8c37-0accf194060a"
        },
        "categories": {
            "auth": {
                "cognitocf0c6096": {}
            }
        }
    }
}